{
  "entry": {
    "main": [
      "./scripts/main.js",
      "./styles/main.scss"
    ],
    "customizer": [
      "./scripts/customizer.js"
    ]
  },
  "publicPath": "/wp-content/themes/essencius",
  "devUrl": "http://example.test",
  "proxyUrl": "https://essencius.dev:8890/",
  "cacheBusting": "[name]_[hash:8]",
  "watch": [
    "app/**/*.php",
    "config/**/*.php",
    "resources/views/**/*.php"
  ]
}
